<?xml version="1.0" encoding="UTF-8"?>
<session version="1.0">
<refactoring accessors="true" comment="Delete element from project &apos;34-thymeleafdemo-employees-db&apos;&#x0D;&#x0A;- Original project: &apos;34-thymeleafdemo-employees-db&apos;&#x0D;&#x0A;- Original element: &apos;34-thymeleafdemo-employees-db/src/main/java/com.mmiloch.springboot.thymeleafdemo.model&apos;" description="Delete element" element1="/src\/main\/java=/optional=/true=/=/maven.pomderived=/true=/&lt;com.mmiloch.springboot.thymeleafdemo.model" elements="1" flags="589830" id="org.eclipse.jdt.ui.delete" resources="0" stamp="1592827415917" subPackages="false" version="1.0"/>
</session>