<?xml version="1.0" encoding="UTF-8"?>
<session version="1.0">
<refactoring comment="Copy element &apos;AfterThrowingDemoApp.java&apos; to &apos;com.mmiloch.aopdemo.AfterThrowingDemoApp.java&apos;&#x0D;&#x0A;- Original project: &apos;spring-demo-aop-zz-after-finally&apos;&#x0D;&#x0A;- Destination element: &apos;com.mmiloch.aopdemo.AfterThrowingDemoApp.java&apos;&#x0D;&#x0A;- Original element: &apos;com.mmiloch.aopdemo.AfterThrowingDemoApp.java&apos;" description="Copy compilation unit" destination="/src&lt;com.mmiloch.aopdemo{AfterThrowingDemoApp.java" element1="/src&lt;com.mmiloch.aopdemo{AfterThrowingDemoApp.java" files="0" flags="589830" folders="0" id="org.eclipse.jdt.ui.copy" policy="org.eclipse.jdt.ui.copyResources" stamp="1588523596172" units="1" version="1.0"/>
</session>